becausejustyn - Untitled
…
# 43 x 6
# so k = 6 here
wr_stats |> dim()

[1] 43  6

Tab 1 - M (n x m) - 43 x 6
Tab 2 - U (n x k) - 43 x 6
Tab 3 - D (k x k)
Tab 4 - V^T (k x m)

wr_stats |> tibble()

# A tibble: 43 × 1
   wr_stats[,"air_yards"] [,"yards_per_target"] [,"yards_after_cat… [,"td_rate"]
                    <dbl>                 <dbl>               <dbl>        <dbl>
 1               -1.81                   -1.30               -0.532       -1.57 
 2               -0.00809                -0.508              -0.743        1.89 
 3               -0.755                  -0.804              -1.03        -0.510
 4                0.955                  -0.958              -0.724        0.409
 5                0.219                  -0.493              -0.466       -0.284
 6               -0.261                   0.602               0.165        0.328
 7               -0.766                  -1.06                0.677       -1.03 
 8                0.910                   0.716              -0.796        2.34 
 9                0.0861                 -0.173              -1.00         0.938
10               -1.31                   -0.901              -0.857       -0.836
# … with 33 more rows, and 1 more variable: wr_stats[5:6] <dbl>
…
